@startuml
!include <cloudinsight/kafka>

'
' NOTE: this file is only here for easy editing in PlantUML tooling.
' copy the contents into the inlined PlantUML section in README.md
'

frame "Producer app" as producer {
	component "Axual client" as prodclient
}
frame "Consumer app" as consumer {
	component "Axual client" as consclient
}

frame "Axual" as axual {

	component "Discovery API" as disco
	component "Schema registry" as registry
	queue "<$kafka>" as kafka1
	queue "<$kafka>" as kafka2

	disco -[hidden]-> registry
	registry -[hidden]-> kafka1
	kafka1 --> kafka2
	kafka2 --> kafka1

}

prodclient <-> disco
prodclient <-> registry
prodclient <-> kafka1
registry <-> consclient
disco <-> consclient
consclient <-> kafka2

@enduml